…
What do these numbers look like as a fraction of all genomes?

``` r
count_tibble %>% 
  filter(region == "v19") %>% 
  group_by(genome) %>% 
  summarise(n_rrn = sum(count), .groups="drop") %>%
  count(n_rrn) %>% 
  mutate(fraction = n/sum(n))
```

    ## # A tibble: 21 × 3
    ##    n_rrn     n fraction
    ##    <dbl> <int>    <dbl>
    ##  1     1  2367   0.0860
    ##  2     2  2961   0.108 
    ##  3     3  3165   0.115 
    ##  4     4  3051   0.111 
    ##  5     5  2109   0.0766
    ##  6     6  3903   0.142 
    ##  7     7  5082   0.185 
    ##  8     8  2552   0.0927
    ##  9     9   647   0.0235
    ## 10    10   653   0.0237
    ## # … with 11 more rows
…
``` r
count_tibble %>% 
  group_by(region, genome) %>% 
  summarise(n_asv = n(), n_rrn = sum(count), .groups="drop") %>% 
  group_by(region, n_rrn) %>% 
  summarise(med_n_asv = median(n_asv),
            mean_n_asv = mean(n_asv),
            lq_n_asv = quantile(n_asv, prob=0.25),
            uq_n_asv = quantile(n_asv, prob = 0.75))
```

    ## # A tibble: 84 × 6
    ## # Groups:   region [4]
    ##    region n_rrn med_n_asv mean_n_asv lq_n_asv uq_n_asv
    ##    <chr>  <dbl>     <dbl>      <dbl>    <dbl>    <dbl>
    ##  1 v19        1         1       1           1        1
    ##  2 v19        2         1       1.28        1        2
    ##  3 v19        3         1       1.40        1        2
    ##  4 v19        4         1       1.82        1        2
    ##  5 v19        5         3       2.71        1        4
    ##  6 v19        6         2       2.76        1        4
    ##  7 v19        7         4       4.25        3        6
    ##  8 v19        8         5       4.72        3        7
    ##  9 v19        9         7       6.31        5        8
    ## 10 v19       10         7       6.25        4        9
    ## # … with 74 more rows
…
